com/example/ServletCustomizer.class
META-INF/spring-configuration-metadata.json
com/client/example/ClientApplication.class
com/example/tresting/util/OpenIdConnectConfig.class
com/example/SocialApplication$ResourceServerConfiguration.class
com/example/tresting/util/SSLContextRequestFactory.class
com/example/SSLUtil$1.class
com/example/SocialApplication.class
com/example/tresting/util/OpenIdConnectUserDetails.class
com/example/SSLUtil.class
com/example/SSLUtil$2.class
com/example/tresting/util/OpenIdConnectFilter.class
com/example/tresting/util/OpenIdConnectFilter$1.class
com/example/tresting/util/OpenIdConnectFilter$NoopAuthenticationManager.class
com/example/tresting/util/DumbX509TrustManager.class
com/example/ClientResources.class
