/home/mike/Projects/skunkworks/tut-spring-boot-oauth2/auth-server/src/main/java/com/example/SSLUtil.java
/home/mike/Projects/skunkworks/tut-spring-boot-oauth2/auth-server/src/main/java/com/example/ServletCustomizer.java
/home/mike/Projects/skunkworks/tut-spring-boot-oauth2/auth-server/src/main/java/com/example/tresting/util/SSLContextRequestFactory.java
/home/mike/Projects/skunkworks/tut-spring-boot-oauth2/auth-server/src/main/java/com/example/SocialApplication.java
/home/mike/Projects/skunkworks/tut-spring-boot-oauth2/auth-server/src/main/java/com/client/example/ClientApplication.java
/home/mike/Projects/skunkworks/tut-spring-boot-oauth2/auth-server/src/main/java/com/example/tresting/util/DumbX509TrustManager.java
/home/mike/Projects/skunkworks/tut-spring-boot-oauth2/auth-server/src/main/java/com/example/tresting/util/OpenIdConnectUserDetails.java
/home/mike/Projects/skunkworks/tut-spring-boot-oauth2/auth-server/src/main/java/com/example/tresting/util/OpenIdConnectFilter.java
/home/mike/Projects/skunkworks/tut-spring-boot-oauth2/auth-server/src/main/java/com/example/tresting/util/OpenIdConnectConfig.java
/home/mike/Projects/skunkworks/tut-spring-boot-oauth2/auth-server/src/main/java/com/example/ClientResources.java
